# Blender MTL File: 'None'
# Material Count: 26

newmtl Carpet
Ns 92.156863
Ka 0.000000 0.000000 0.000000
Kd 0.512000 0.512000 0.512000
Ks 0.500000 0.500000 0.500000
Ni 1.000000
d 1.000000
illum 2
map_Kd ../texture_library/floor/images.jpg

newmtl Ceiling1_part
Ns 92.156863
Ka 0.000000 0.000000 0.000000
Kd 0.512000 0.512000 0.512000
Ks 0.500000 0.500000 0.500000
Ni 1.000000
d 1.000000
illum 2
map_Kd ../texture_library/ceiling/ceiling_light.jpg

newmtl Ceiling_Lamps
Ns 92.156863
Ka 0.000000 0.000000 0.000000
Kd 0.512000 0.512000 0.512000
Ks 0.500000 0.500000 0.500000
Ni 1.000000
d 1.000000
illum 2
map_Kd ../texture_library/ceiling/ceiling_light.jpg

newmtl Circle01_25
Ns 92.156863
Ka 0.000000 0.000000 0.000000
Kd 0.512000 0.512000 0.512000
Ks 0.500000 0.500000 0.500000
Ni 1.000000
d 1.000000
illum 2
map_Kd ../texture_library/duvet/8a7a884e0ffe99a1e5159472cfd234b7.jpg

newmtl Curtain
Ns 92.156863
Ka 0.000000 0.000000 0.000000
Kd 0.512000 0.512000 0.512000
Ks 0.500000 0.500000 0.500000
Ni 1.000000
d 1.000000
illum 2
map_Kd ../texture_library/curtain/curtainp2.jpg

newmtl Door1
Ns 92.156863
Ka 0.000000 0.000000 0.000000
Kd 0.512000 0.512000 0.512000
Ks 0.500000 0.500000 0.500000
Ni 1.000000
d 1.000000
illum 2
map_Kd ../texture_library/door/6672bedd7f0ab76a2e5871feb3895412.jpg

newmtl Door2
Ns 92.156863
Ka 0.000000 0.000000 0.000000
Kd 0.512000 0.512000 0.512000
Ks 0.500000 0.500000 0.500000
Ni 1.000000
d 1.000000
illum 2
map_Kd ../texture_library/door/709f4a9f348a19e367cd71070c382f63.jpg

newmtl Furniture1
Ns 92.156863
Ka 0.000000 0.000000 0.000000
Kd 0.512000 0.512000 0.512000
Ks 0.500000 0.500000 0.500000
Ni 1.000000
d 1.000000
illum 2
map_Kd ../texture_library/furniture/e6cd46917b4bf133ac8d364eb6570555.jpg

newmtl Furniture3
Ns 92.156863
Ka 0.000000 0.000000 0.000000
Kd 0.512000 0.512000 0.512000
Ks 0.500000 0.500000 0.500000
Ni 1.000000
d 1.000000
illum 2
map_Kd ../texture_library/furniture/c4751258c4e6395129606f13de3f0bed.jpg

newmtl Kitchen_Fridge
Ns 92.156863
Ka 0.000000 0.000000 0.000000
Kd 0.512000 0.512000 0.512000
Ks 0.500000 0.500000 0.500000
Ni 1.000000
d 1.000000
illum 2
map_Kd ../texture_library/duvet/8a7a884e0ffe99a1e5159472cfd234b7.jpg

newmtl Rectangl20_82
Ns 92.156863
Ka 0.000000 0.000000 0.000000
Kd 0.512000 0.512000 0.512000
Ks 0.500000 0.500000 0.500000
Ni 1.000000
d 1.000000
illum 2
map_Kd ../texture_library/duvet/8a7a884e0ffe99a1e5159472cfd234b7.jpg

newmtl Room1
Ns 92.156863
Ka 0.000000 0.000000 0.000000
Kd 0.512000 0.512000 0.512000
Ks 0.500000 0.500000 0.500000
Ni 1.000000
d 1.000000
illum 2
map_Kd ../texture_library/duvet/8a7a884e0ffe99a1e5159472cfd234b7.jpg

newmtl Sphere02_52
Ns 92.156863
Ka 0.000000 0.000000 0.000000
Kd 0.512000 0.512000 0.512000
Ks 0.500000 0.500000 0.500000
Ni 1.000000
d 1.000000
illum 2
map_Kd ../texture_library/duvet/8a7a884e0ffe99a1e5159472cfd234b7.jpg

newmtl Sphere03_50
Ns 92.156863
Ka 0.000000 0.000000 0.000000
Kd 0.512000 0.512000 0.512000
Ks 0.500000 0.500000 0.500000
Ni 1.000000
d 1.000000
illum 2
map_Kd ../texture_library/duvet/8a7a884e0ffe99a1e5159472cfd234b7.jpg

newmtl Sphere04_51
Ns 92.156863
Ka 0.000000 0.000000 0.000000
Kd 0.512000 0.512000 0.512000
Ks 0.500000 0.500000 0.500000
Ni 1.000000
d 1.000000
illum 2
map_Kd ../texture_library/duvet/8a7a884e0ffe99a1e5159472cfd234b7.jpg

newmtl Sphere04_inst_2_51
Ns 92.156863
Ka 0.000000 0.000000 0.000000
Kd 0.512000 0.512000 0.512000
Ks 0.500000 0.500000 0.500000
Ni 1.000000
d 1.000000
illum 2
map_Kd ../texture_library/duvet/8a7a884e0ffe99a1e5159472cfd234b7.jpg

newmtl String2
Ns 92.156863
Ka 0.000000 0.000000 0.000000
Kd 0.512000 0.512000 0.512000
Ks 0.500000 0.500000 0.500000
Ni 1.000000
d 1.000000
illum 2
map_Kd ../texture_library/duvet/8a7a884e0ffe99a1e5159472cfd234b7.jpg

newmtl String3
Ns 92.156863
Ka 0.000000 0.000000 0.000000
Kd 0.512000 0.512000 0.512000
Ks 0.500000 0.500000 0.500000
Ni 1.000000
d 1.000000
illum 2
map_Kd ../texture_library/duvet/8a7a884e0ffe99a1e5159472cfd234b7.jpg

newmtl Walls1
Ns 92.156863
Ka 0.000000 0.000000 0.000000
Kd 0.512000 0.512000 0.512000
Ks 0.500000 0.500000 0.500000
Ni 1.000000
d 1.000000
illum 2
map_Kd ../texture_library/wall/292a7055c4eebc2687f0a1637f5af9ac.jpg

newmtl Walls1_bottom
Ns 92.156863
Ka 0.000000 0.000000 0.000000
Kd 0.512000 0.512000 0.512000
Ks 0.500000 0.500000 0.500000
Ni 1.000000
d 1.000000
illum 2
map_Kd ../texture_library/wall/furniture-black-painted-wall-texture-with-download-painted-cracked-wall-texture.jpg

newmtl Walls2
Ns 92.156863
Ka 0.000000 0.000000 0.000000
Kd 0.512000 0.512000 0.512000
Ks 0.500000 0.500000 0.500000
Ni 1.000000
d 1.000000
illum 2
map_Kd ../texture_library/wall/images.jpg

newmtl Window_1
Ns 92.156863
Ka 0.000000 0.000000 0.000000
Kd 0.512000 0.512000 0.512000
Ks 0.500000 0.500000 0.500000
Ni 1.000000
d 1.000000
illum 2
map_Kd ../texture_library/window/long_horizontal_window.jpg

newmtl Window_2
Ns 92.156863
Ka 0.000000 0.000000 0.000000
Kd 0.512000 0.512000 0.512000
Ks 0.500000 0.500000 0.500000
Ni 1.000000
d 1.000000
illum 2
map_Kd ../texture_library/window/long_horizontal_window.jpg

newmtl Window_3
Ns 92.156863
Ka 0.000000 0.000000 0.000000
Kd 0.512000 0.512000 0.512000
Ks 0.500000 0.500000 0.500000
Ni 1.000000
d 1.000000
illum 2
map_Kd ../texture_library/window/long_horizontal_window.jpg

newmtl Windows_boundary
Ns 92.156863
Ka 0.000000 0.000000 0.000000
Kd 0.512000 0.512000 0.512000
Ks 0.500000 0.500000 0.500000
Ni 1.000000
d 1.000000
illum 2
map_Kd ../texture_library/window/long_horizontal_window.jpg

newmtl floor_base
Ns 92.156863
Ka 0.000000 0.000000 0.000000
Kd 0.512000 0.512000 0.512000
Ks 0.500000 0.500000 0.500000
Ni 1.000000
d 1.000000
illum 2
map_Kd ../texture_library/floor/images.jpg
