# Blender MTL File: 'None'
# Material Count: 17

newmtl Door1.001
Ns 90.196078
Ka 0.000000 0.000000 0.000000
Kd 0.409600 0.409600 0.409600
Ks 0.500000 0.500000 0.500000
Ni 1.000000
d 1.000000
illum 2
map_Kd ../texture_library/door/Vintage-brown-wood-door-texture-0.jpg

newmtl Door2.001
Ns 90.196078
Ka 0.000000 0.000000 0.000000
Kd 0.409600 0.409600 0.409600
Ks 0.500000 0.500000 0.500000
Ni 1.000000
d 1.000000
illum 2
map_Kd ../texture_library/door/Vintage-brown-wood-door-texture-0.jpg

newmtl Door3.001
Ns 90.196078
Ka 0.000000 0.000000 0.000000
Kd 0.409600 0.409600 0.409600
Ks 0.500000 0.500000 0.500000
Ni 1.000000
d 1.000000
illum 2
map_Kd ../texture_library/door/6672bedd7f0ab76a2e5871feb3895412.jpg

newmtl Door4.001
Ns 90.196078
Ka 0.000000 0.000000 0.000000
Kd 0.409600 0.409600 0.409600
Ks 0.500000 0.500000 0.500000
Ni 1.000000
d 1.000000
illum 2
map_Kd ../texture_library/door/white-door-texture.jpg

newmtl Doors_Back
Ns 90.196078
Ka 0.000000 0.000000 0.000000
Kd 0.409600 0.409600 0.409600
Ks 0.500000 0.500000 0.500000
Ni 1.000000
d 1.000000
illum 2
map_Kd ../texture_library/door/door-texture.jpg

newmtl Floor
Ns 90.196078
Ka 0.000000 0.000000 0.000000
Kd 0.409600 0.409600 0.409600
Ks 0.500000 0.500000 0.500000
Ni 1.000000
d 1.000000
illum 2
map_Kd ../texture_library/floor/images.jpg

newmtl Furniture1
Ns 90.196078
Ka 0.000000 0.000000 0.000000
Kd 0.409600 0.409600 0.409600
Ks 0.500000 0.500000 0.500000
Ni 1.000000
d 1.000000
illum 2
map_Kd ../texture_library/furniture/f8e9bde683166b2d6f59edece41c8800.jpg

newmtl Furniture2.001
Ns 90.196078
Ka 0.000000 0.000000 0.000000
Kd 0.409600 0.409600 0.409600
Ks 0.500000 0.500000 0.500000
Ni 1.000000
d 1.000000
illum 2
map_Kd ../texture_library/furniture/5a37400d95f0065041855d70de05f965.jpg

newmtl Painting1
Ns 90.196078
Ka 0.000000 0.000000 0.000000
Kd 0.409600 0.409600 0.409600
Ks 0.500000 0.500000 0.500000
Ni 1.000000
d 1.000000
illum 2
map_Kd ../texture_library/painting/873a6120c92ba8d436014a54ef1fe8fe.jpg

newmtl PlantPot
Ns 90.196078
Ka 0.000000 0.000000 0.000000
Kd 0.409600 0.409600 0.409600
Ks 0.500000 0.500000 0.500000
Ni 1.000000
d 1.000000
illum 2
map_Kd ../texture_library/duvet/8a7a884e0ffe99a1e5159472cfd234b7.jpg

newmtl Plants
Ns 90.196078
Ka 0.000000 0.000000 0.000000
Kd 0.409600 0.409600 0.409600
Ks 0.500000 0.500000 0.500000
Ni 1.000000
d 1.000000
illum 2
map_Kd ../texture_library/duvet/8a7a884e0ffe99a1e5159472cfd234b7.jpg

newmtl Shelf1.001
Ns 90.196078
Ka 0.000000 0.000000 0.000000
Kd 0.409600 0.409600 0.409600
Ks 0.500000 0.500000 0.500000
Ni 1.000000
d 1.000000
illum 2
map_Kd ../texture_library/shelf/465_13_wood-textures-desktop-background.jpg

newmtl Shelf2
Ns 90.196078
Ka 0.000000 0.000000 0.000000
Kd 0.409600 0.409600 0.409600
Ks 0.500000 0.500000 0.500000
Ni 1.000000
d 1.000000
illum 2
map_Kd ../texture_library/shelf/465_13_wood-textures-desktop-background.jpg

newmtl Vase1
Ns 90.196078
Ka 0.000000 0.000000 0.000000
Kd 0.409600 0.409600 0.409600
Ks 0.500000 0.500000 0.500000
Ni 1.000000
d 1.000000
illum 2
map_Kd ../texture_library/duvet/8a7a884e0ffe99a1e5159472cfd234b7.jpg

newmtl Vase2
Ns 90.196078
Ka 0.000000 0.000000 0.000000
Kd 0.409600 0.409600 0.409600
Ks 0.500000 0.500000 0.500000
Ni 1.000000
d 1.000000
illum 2
map_Kd ../texture_library/duvet/8a7a884e0ffe99a1e5159472cfd234b7.jpg

newmtl Vase3
Ns 90.196078
Ka 0.000000 0.000000 0.000000
Kd 0.409600 0.409600 0.409600
Ks 0.500000 0.500000 0.500000
Ni 1.000000
d 1.000000
illum 2
map_Kd ../texture_library/duvet/8a7a884e0ffe99a1e5159472cfd234b7.jpg

newmtl Walls
Ns 90.196078
Ka 0.000000 0.000000 0.000000
Kd 0.409600 0.409600 0.409600
Ks 0.500000 0.500000 0.500000
Ni 1.000000
d 1.000000
illum 2
map_Kd ../texture_library/wall/images.jpg
